<?xml version="1.0" encoding="utf-8"?>
<!-- Generator: Adobe Illustrator 23.0.1, SVG Export Plug-In . SVG Version: 6.00 Build 0)  -->
<svg version="1.1" id="Calque_1" xmlns="http://www.w3.org/2000/svg" xmlns:xlink="http://www.w3.org/1999/xlink" x="0px" y="0px"
	 viewBox="0 0 1920.5 869.3" style="enable-background:new 0 0 1920.5 869.3;" xml:space="preserve">
<style type="text/css">
	.st0{opacity:0.2;fill:#FE281E;enable-background:new    ;}
	.st1{fill:#FA7268;}
</style>
<g id="backgroud_top" transform="translate(0.5 80)">
	<g id="Groupe_6802">
		<path id="_2nd_Shape" class="st0" d="M0-83.3l1920,1V549c0,0-1232.3,406.3-1746,153.7c-76.3-43.4-129-74-174-126
			C0.9,214.5,0-83.3,0-83.3z"/>
		<path id="_1_st_Shape" class="st1" d="M0-82.3h1920V531c0,0-1255.9,414.2-1763.9,128.9c-62-34.8-114.8-73.7-156.6-115.2
			C-0.3,236.5,0-82.3,0-82.3z"/>
	</g>
</g>
</svg>
