<svg xmlns="http://www.w3.org/2000/svg" width="35.741" height="35.741" viewBox="0 0 35.741 35.741">
  <g id="podcast_spotify" transform="translate(0)">
    <g id="Groupe_6753" data-name="Groupe 6753" transform="translate(0 0)">
      <circle id="Ellipse_162" data-name="Ellipse 162" cx="17.871" cy="17.871" r="17.871" transform="translate(0 0)" fill="#00d95f"/>
      <path id="Tracé_3553" data-name="Tracé 3553" d="M113.931,265.169a1.222,1.222,0,0,1-1.672.439,17.989,17.989,0,0,0-9.469-2.1,23.49,23.49,0,0,0-4.912.649,1.222,1.222,0,0,1-.648-2.357,25.444,25.444,0,0,1,5.417-.733,23.856,23.856,0,0,1,5.218.378,17.613,17.613,0,0,1,5.626,2.054A1.222,1.222,0,0,1,113.931,265.169Z" transform="translate(-88.283 -239.234)" fill="#fff"/>
      <path id="Tracé_3554" data-name="Tracé 3554" d="M105.51,200.379a1.447,1.447,0,0,1-1.98.519,21.308,21.308,0,0,0-11.216-2.489,27.828,27.828,0,0,0-5.818.768,1.448,1.448,0,0,1-.767-2.791,30.132,30.132,0,0,1,6.416-.868,28.264,28.264,0,0,1,6.181.447,20.865,20.865,0,0,1,6.665,2.433A1.447,1.447,0,0,1,105.51,200.379Z" transform="translate(-77.59 -179.163)" fill="#fff"/>
      <path id="Tracé_3555" data-name="Tracé 3555" d="M87.245,127.276a1.767,1.767,0,0,1-.894-.243c-9.043-5.285-20.774-2.143-20.892-2.111a1.776,1.776,0,0,1-.943-3.423,36.958,36.958,0,0,1,7.87-1.064,34.676,34.676,0,0,1,7.582.549,25.59,25.59,0,0,1,8.175,2.984,1.776,1.776,0,0,1-.9,3.309Z" transform="translate(-57.928 -110.35)" fill="#fff"/>
    </g>
  </g>
</svg>
